cpu-design/cpu.vcd
$date
	Fri Jun 19 12:07:32 2015
$end
$version
	Icarus Verilog
$end
$timescale
	100fs
$end
$scope module test $end
$scope module cpu $end
$var wire 1 ! god $end
$var reg 1 " clock $end
$var integer 32 # addr [31:0] $end
$var integer 32 $ cycle [31:0] $end
$var integer 32 % i [31:0] $end
$scope module CDBadd $end
$var wire 6 & robNum [5:0] $end
$var wire 1 ' enable $end
$var wire 32 ( data [31:0] $end
$var reg 32 ) data_out [31:0] $end
$var reg 1 * iscast_out $end
$var reg 6 + robNum_out [5:0] $end
$upscope $end
$scope module CDBlw $end
$var wire 6 , robNum [5:0] $end
$var wire 1 - enable $end
$var wire 32 . data [31:0] $end
$var reg 32 / data_out [31:0] $end
$var reg 1 0 iscast_out $end
$var reg 6 1 robNum_out [5:0] $end
$upscope $end
$scope module addRS $end
$var wire 32 2 CDBdata [31:0] $end
$var wire 32 3 CDBdata2 [31:0] $end
$var wire 1 * CDBiscast $end
$var wire 1 0 CDBiscast2 $end
$var wire 6 4 CDBrobNum [5:0] $end
$var wire 6 5 CDBrobNum2 [5:0] $end
$var wire 1 " clock $end
$var wire 32 6 value [31:0] $end
$var wire 6 7 robNum [5:0] $end
$var wire 1 8 reset $end
$var wire 1 9 ready $end
$var wire 6 : q2 [5:0] $end
$var wire 6 ; q1 [5:0] $end
$var wire 6 < operatorType [5:0] $end
$var wire 1 = funcUnitEnable $end
$var wire 32 > data2 [31:0] $end
$var wire 32 ? data1 [31:0] $end
$var reg 1 @ available $end
$var reg 1 A breakmark $end
$var reg 1 ' broadcast $end
$var reg 32 B data1_tmp [31:0] $end
$var reg 32 C data2_tmp [31:0] $end
$var reg 32 D data_out [31:0] $end
$var reg 6 E index [5:0] $end
$var reg 6 F q1_tmp [5:0] $end
$var reg 6 G q2_tmp [5:0] $end
$var reg 6 H robNum_out [5:0] $end
$var integer 32 I i [31:0] $end
$upscope $end
$scope module bneRS $end
$var wire 32 J CDBdata [31:0] $end
$var wire 32 K CDBdata2 [31:0] $end
$var wire 1 * CDBiscast $end
$var wire 1 0 CDBiscast2 $end
$var wire 6 L CDBrobNum [5:0] $end
$var wire 6 M CDBrobNum2 [5:0] $end
$var wire 1 " clock $end
$var wire 32 N value [31:0] $end
$var wire 6 O robNum [5:0] $end
$var wire 1 8 reset $end
$var wire 1 P ready $end
$var wire 6 Q q2 [5:0] $end
$var wire 6 R q1 [5:0] $end
$var wire 6 S operatorType [5:0] $end
$var wire 1 = funcUnitEnable $end
$var wire 32 T data2 [31:0] $end
$var wire 32 U data1 [31:0] $end
$var reg 1 V available $end
$var reg 1 W bneResultEnable $end
$var reg 1 X breakmark $end
$var reg 32 Y data1_tmp [31:0] $end
$var reg 32 Z data2_tmp [31:0] $end
$var reg 32 [ data_out [31:0] $end
$var reg 6 \ index [5:0] $end
$var reg 6 ] q1_tmp [5:0] $end
$var reg 6 ^ q2_tmp [5:0] $end
$var reg 6 _ robNum_out [5:0] $end
$var integer 32 ` i [31:0] $end
$upscope $end
$scope module branchPredictor $end
$var wire 1 a branchWriteEnable $end
$var wire 2 b branchWriteData [1:0] $end
$var wire 32 c branchWriteAddr [31:0] $end
$var wire 32 d branchROBReadAddr [31:0] $end
$var wire 32 e branchPCReadAddr [31:0] $end
$var reg 1 f branchPCPredict $end
$var reg 2 g branchROBPredict [1:0] $end
$var integer 32 h i [31:0] $end
$upscope $end
$scope module dataCache $end
$var wire 1 " clk $end
$var wire 1 i writeEnable $end
$var wire 32 j writeData [31:0] $end
$var wire 32 k writeAddr [31:0] $end
$var wire 32 l readAddr [31:0] $end
$var wire 1 m memoryWriteDone $end
$var wire 1 n memoryReadEnable $end
$var wire 512 o memoryReadData [511:0] $end
$var reg 1 p hit $end
$var reg 32 q memoryReadAddr [31:0] $end
$var reg 32 r memoryWriteAddr [31:0] $end
$var reg 32 s memoryWriteData [31:0] $end
$var reg 1 t memoryWritePulse $end
$var reg 32 u readData [31:0] $end
$var reg 10 v readIndex [9:0] $end
$var reg 6 w readOffset [5:0] $end
$var reg 16 x readTag [15:0] $end
$var reg 32 y reserveData [31:0] $end
$var reg 6 z wordOffset [5:0] $end
$var reg 1 { writeDone $end
$var reg 10 | writeIndex [9:0] $end
$var reg 6 } writeOffset [5:0] $end
$var reg 16 ~ writeTag [15:0] $end
$var reg 6 !" writeWordOffset [5:0] $end
$var integer 32 "" i [31:0] $end
$upscope $end
$scope module dataMemory $end
$var wire 1 " clock $end
$var wire 32 #" readAddress [31:0] $end
$var wire 32 $" writeAddress [31:0] $end
$var wire 32 %" writeData [31:0] $end
$var wire 1 t writeRequest $end
$var reg 512 &" data_out [511:0] $end
$var reg 32 '" readAddrOffset [31:0] $end
$var reg 1 n readEnable $end
$var reg 32 (" writeAddrOffset [31:0] $end
$var reg 1 m writeDone $end
$var reg 6 )" writeWordOffset [5:0] $end
$var integer 32 *" i [31:0] $end
$var integer 32 +" readCount [31:0] $end
$var integer 32 ," writeCount [31:0] $end
$upscope $end
$scope module instructionDecode $end
$var wire 1 " clock $end
$var wire 32 -" instr [31:0] $end
$var wire 1 ." decodePulse $end
$var wire 1 /" available $end
$var reg 1 0" ROBissueValid $end
$var reg 1 1" ava $end
$var reg 32 2" data1 [31:0] $end
$var reg 32 3" data2 [31:0] $end
$var reg 5 4" destreg [4:0] $end
$var reg 32 5" instr_out [31:0] $end
$var reg 1 6" notfull $end
$var reg 6 7" operatorType [5:0] $end
$var reg 5 8" reg1 [4:0] $end
$var reg 5 9" reg2 [4:0] $end
$var reg 1 :" regstatusEnable $end
$upscope $end
$scope module instructionFetch $end
$var wire 32 ;" pc [31:0] $end
$var reg 32 <" instr [31:0] $end
$var reg 1 =" isend $end
$upscope $end
$scope module loadRS $end
$var wire 1 * cdbIscast $end
$var wire 1 0 cdbIscast2 $end
$var wire 6 >" cdbRobNum [5:0] $end
$var wire 6 ?" cdbRobNum2 [5:0] $end
$var wire 32 @" cdbdata [31:0] $end
$var wire 32 A" cdbdata2 [31:0] $end
$var wire 1 " clock $end
$var wire 6 B" operatorType [5:0] $end
$var wire 32 C" value [31:0] $end
$var wire 1 8 reset $end
$var wire 1 D" ready $end
$var wire 6 E" q [5:0] $end
$var wire 32 F" offset_in [31:0] $end
$var wire 1 = funcUnitEnable $end
$var wire 6 G" destRobNum [5:0] $end
$var wire 32 H" data [31:0] $end
$var wire 1 I" busy $end
$var reg 1 J" available $end
$var reg 1 K" breakmark $end
$var reg 32 L" data_out [31:0] $end
$var reg 32 M" data_tmp [31:0] $end
$var reg 6 N" index [5:0] $end
$var reg 1 O" loadEnable $end
$var reg 6 P" q_tmp [5:0] $end
$var reg 6 Q" robNum_out [5:0] $end
$var integer 32 R" i [31:0] $end
$upscope $end
$scope module loadUnit $end
$var wire 32 S" addr [31:0] $end
$var wire 1 " clock $end
$var wire 32 T" data_in [31:0] $end
$var wire 1 p hit $end
$var wire 1 O" loadEnable $end
$var wire 6 U" robNum [5:0] $end
$var reg 32 V" addr_out [31:0] $end
$var reg 1 I" busy $end
$var reg 1 - cdbEnable $end
$var reg 32 W" cdbdata [31:0] $end
$var reg 6 X" robNum_out [5:0] $end
$upscope $end
$scope module pcControl $end
$var wire 1 @ addempty $end
$var wire 1 V bneempty $end
$var wire 1 " clock $end
$var wire 1 f jump $end
$var wire 32 Y" jumppc [31:0] $end
$var wire 1 J" lwempty $end
$var wire 6 Z" operatorType [5:0] $end
$var wire 1 [" swempty $end
$var wire 1 \" robempty $end
$var wire 1 ]" pcChange $end
$var wire 32 ^" changeData [31:0] $end
$var reg 1 /" available $end
$var reg 1 ." decodePulse $end
$var reg 32 _" pc [31:0] $end
$var integer 32 `" count [31:0] $end
$upscope $end
$scope module regfile $end
$var wire 32 a" data1_in [31:0] $end
$var wire 32 b" data2_in [31:0] $end
$var wire 6 c" operatorType [5:0] $end
$var wire 5 d" reg1 [4:0] $end
$var wire 5 e" reg2 [4:0] $end
$var wire 1 :" regEnable $end
$var wire 5 f" ROBwriteIndex [4:0] $end
$var wire 1 g" ROBwriteEnable $end
$var wire 32 h" ROBwriteData [31:0] $end
$var reg 32 i" data1 [31:0] $end
$var reg 32 j" data2 [31:0] $end
$var reg 32 k" offset [31:0] $end
$var integer 32 l" i [31:0] $end
$upscope $end
$scope module regstatus $end
$var wire 5 m" reg1 [4:0] $end
$var wire 5 n" reg2 [4:0] $end
$var wire 1 :" regStatusEnable $end
$var wire 6 o" writedata [5:0] $end
$var wire 5 p" writeIndex [4:0] $end
$var wire 1 q" writeEnable $end
$var wire 5 r" ROBindex [4:0] $end
$var reg 6 s" ROBstatus [5:0] $end
$var reg 1 = funcUnitEnable $end
$var reg 6 t" q1 [5:0] $end
$var reg 6 u" q2 [5:0] $end
$var integer 32 v" i [31:0] $end
$upscope $end
$scope module reorderBuffer $end
$var wire 32 w" CDBdata1 [31:0] $end
$var wire 32 x" CDBdata2 [31:0] $end
$var wire 1 * CDBisCast1 $end
$var wire 1 0 CDBisCast2 $end
$var wire 6 y" CDBrobNum1 [5:0] $end
$var wire 6 z" CDBrobNum2 [5:0] $end
$var wire 6 {" adderIndexIn [5:0] $end
$var wire 6 |" bneIndexIn [5:0] $end
$var wire 1 W bneWriteEnable $end
$var wire 6 }" bneWriteIndex [5:0] $end
$var wire 32 ~" bneWriteResult [31:0] $end
$var wire 2 !# branchPrediction [1:0] $end
$var wire 1 { cacheWriteDone $end
$var wire 1 =" cataclysm $end
$var wire 1 " clk $end
$var wire 1 0" issueValid $end
$var wire 32 "# issue_data2 [31:0] $end
$var wire 5 ## issue_destReg [4:0] $end
$var wire 6 $# issue_opType [5:0] $end
$var wire 32 %# issue_pc [31:0] $end
$var wire 6 &# loadIndexIn [5:0] $end
$var wire 6 '# space [5:0] $end
$var wire 6 (# statusResult [5:0] $end
$var wire 32 )# storeValue [31:0] $end
$var wire 6 *# storeRobIndex [5:0] $end
$var wire 1 +# storeEnable $end
$var wire 32 ,# storeDest [31:0] $end
$var wire 6 -# saveIndexIn [5:0] $end
$var reg 1 9 adderReadyOut $end
$var reg 32 .# adderResult [31:0] $end
$var reg 1 \" available $end
$var reg 1 P bneReadyOut $end
$var reg 32 /# bneResult [31:0] $end
$var reg 32 0# branchAddr [31:0] $end
$var reg 32 1# branchWriteAddr [31:0] $end
$var reg 2 2# branchWriteData [1:0] $end
$var reg 1 a branchWriteEnable $end
$var reg 32 3# cacheWriteAddr [31:0] $end
$var reg 32 4# cacheWriteData [31:0] $end
$var reg 1 i cacheWriteEnable $end
$var reg 6 5# count [5:0] $end
$var reg 6 6# head [5:0] $end
$var reg 32 7# issueNewPC [31:0] $end
$var reg 1 ]" issueNewPCEnable $end
$var reg 1 D" loadReadyOut $end
$var reg 32 8# loadResult [31:0] $end
$var reg 32 9# regWriteData [31:0] $end
$var reg 1 g" regWriteEnable $end
$var reg 5 :# regWriteIndex [4:0] $end
$var reg 1 8 resetAll $end
$var reg 1 ;# saveReadyOut $end
$var reg 32 <# saveResult [31:0] $end
$var reg 5 =# statusIndex [4:0] $end
$var reg 6 ># statusWriteData [5:0] $end
$var reg 1 q" statusWriteEnable $end
$var reg 5 ?# statusWriteIndex [4:0] $end
$var reg 6 @# tail [5:0] $end
$var reg 2 A# tempPrediction [1:0] $end
$var reg 1 B# worldEnd $end
$var integer 32 C# i [31:0] $end
$scope task FinishAll $end
$upscope $end
$upscope $end
$scope module storeRS $end
$var wire 32 D# cdbdata [31:0] $end
$var wire 32 E# cdbdata2 [31:0] $end
$var wire 1 " clock $end
$var wire 32 F# data1 [31:0] $end
$var wire 32 G# data2 [31:0] $end
$var wire 6 H# destRobNum [5:0] $end
$var wire 1 = funcUnitEnable $end
$var wire 1 * iscast $end
$var wire 1 0 iscast2 $end
$var wire 32 I# offset_in [31:0] $end
$var wire 6 J# operatorType [5:0] $end
$var wire 6 K# q1 [5:0] $end
$var wire 6 L# q2 [5:0] $end
$var wire 1 ;# ready $end
$var wire 1 8 reset $end
$var wire 6 M# robNum [5:0] $end
$var wire 6 N# robNum2 [5:0] $end
$var wire 32 O# value [31:0] $end
$var reg 1 [" available $end
$var reg 1 P# breakmark $end
$var reg 32 Q# data1_out [31:0] $end
$var reg 32 R# data1_tmp [31:0] $end
$var reg 32 S# data2_out [31:0] $end
$var reg 32 T# data2_tmp [31:0] $end
$var reg 6 U# index [5:0] $end
$var reg 6 V# q1_tmp [5:0] $end
$var reg 6 W# q2_tmp [5:0] $end
$var reg 6 X# robNum_out [5:0] $end
$var reg 1 +# storeEnable $end
$var integer 32 Y# i [31:0] $end
$upscope $end
$upscope $end
$upscope $end
$enddefinitions $end
#0
$dumpvars
b100 Y#
bx X#
bx W#
bx V#
bx U#
bx T#
bx S#
bx R#
bx Q#
xP#
bx O#
bx N#
bx M#
b10000 L#
b10000 K#
bx J#
bx I#
b0 H#
bx G#
bx F#
bx E#
bx D#
b1111 C#
xB#
bx A#
b0 @#
bx ?#
bx >#
bx =#
bx <#
x;#
bx :#
bx 9#
bx 8#
bx 7#
b0 6#
b0 5#
bx 4#
bx 3#
bx 2#
bx 1#
bx 0#
bz /#
bz .#
bx -#
bx ,#
0+#
bx *#
bx )#
bx (#
b0 '#
bx &#
b11111111111111111111111111111111 %#
bx $#
bx ##
bx "#
bx !#
bx ~"
bx }"
b10000 |"
b10000 {"
bx z"
bx y"
bx x"
bx w"
b100000 v"
b10000 u"
b10000 t"
bx s"
bx r"
0q"
bx p"
bx o"
bx n"
bx m"
b100000 l"
bx k"
bx j"
bx i"
bx h"
0g"
bx f"
bx e"
bx d"
bx c"
bx b"
bx a"
b1100100000 `"
b11111111111111111111111111111111 _"
bx ^"
0]"
1\"
1["
bx Z"
bx Y"
bx X"
bx W"
bx V"
bx U"
bx T"
bx S"
b100 R"
bx Q"
bx P"
0O"
bx N"
bx M"
bx L"
xK"
1J"
0I"
bx H"
b0 G"
bx F"
b10000 E"
xD"
bx C"
bx B"
bx A"
bx @"
bx ?"
bx >"
0="
bx <"
b11111111111111111111111111111111 ;"
0:"
bx 9"
bx 8"
bx 7"
x6"
bx 5"
bx 4"
bx 3"
bx 2"
x1"
00"
1/"
0."
bx -"
bx ,"
bx +"
b111 *"
bx )"
bx ("
bx '"
bx &"
b0 %"
b0 $"
bx #"
b1111111111 ""
bx !"
bx ~
bx }
bx |
x{
bx z
bx y
bx x
bx w
bx v
bx u
0t
b0 s
b0 r
bx q
xp
bx o
1n
1m
bx l
bx k
bx j
xi
b10000000000 h
bx g
xf
b11111111111111111111111111111111 e
bx d
bx c
bx b
0a
b100 `
bx _
bx ^
bx ]
b10000 \
bx [
bx Z
bx Y
xX
0W
1V
bx U
bx T
bx S
b10000 R
b10000 Q
0P
b0 O
bz N
bx M
bx L
bx K
bx J
b100 I
bx H
bx G
bx F
b10000 E
bx D
bx C
bx B
xA
1@
bx ?
bx >
0=
bx <
b10000 ;
b10000 :
09
08
b0 7
bz 6
bx 5
bx 4
bx 3
bx 2
bx 1
00
bx /
bx .
0-
bx ,
bx +
0*
bx )
bx (
0'
bx &
bx %
b0 $
bx #
0"
x!
$end
#10000
b1100011111 `"
b100 Y#
0P#
1{
1"
#15000
b100 I
0A
b100 R"
0K"
b100 `
0X
#20000
b1 $
0"
#22000
b11111111111111111111111111111111 d
b11111111111111111111111111111111 0#
b0 ^"
b0 7#
0i
#30000
b100 Y#
b1100011110 `"
1"
#35000
b100 `
b100 R"
b100 I
#40000
b10 $
0"
#50000
b1100011101 `"
b100 Y#
1"
#55000
b100 I
b100 R"
b100 `
#60000
b11 $
0"
#70000
b100 Y#
b1100011100 `"
1"
#75000
b100 `
b100 R"
b100 I
#80000
b100 $
0"
#90000
b1100011011 `"
b100 Y#
1"
#95000
b100 I
b100 R"
b100 `
#100000
b101 $
0"
#110000
b100 Y#
b1100011010 `"
1"
#115000
b100 `
b100 R"
b100 I
#120000
b110 $
0"
#130000
b1100011001 `"
b100 Y#
1"
#135000
b100 I
b100 R"
b100 `
#140000
b111 $
0"
#150000
b100 Y#
b1100011000 `"
1"
#155000
b100 `
b100 R"
b100 I
#160000
b1000 $
0"
#170000
b1100010111 `"
b100 Y#
1"
#175000
b100 I
b100 R"
b100 `
#180000
b1001 $
0"
#190000
b100 Y#
b1100010110 `"
1"
#195000
b100 `
b100 R"
b100 I
#200000
b1010 $
0"
#210000
b1100010101 `"
b100 Y#
1"
#215000
b100 I
b100 R"
b100 `
#220000
b1011 $
0"
#230000
b100 Y#
b1100010100 `"
1"
#235000
b100 `
b100 R"
b100 I
#240000
b1100 $
0"
#250000
b1100010011 `"
b100 Y#
1"
#255000
b100 I
b100 R"
b100 `
#260000
b1101 $
0"
#270000
b100 Y#
b1100010010 `"
1"
#275000
b100 `
b100 R"
b100 I
#280000
b1110 $
0"
#290000
b1100010001 `"
b100 Y#
1"
#295000
b100 I
b100 R"
b100 `
#300000
b1111 $
0"
#310000
b100 Y#
b1100010000 `"
1"
#315000
b100 `
b100 R"
b100 I
#320000
b10000 $
0"
#330000
b1100001111 `"
b100 Y#
1"
#335000
b100 I
b100 R"
b100 `
#340000
b10001 $
0"
#350000
b100 Y#
b1100001110 `"
1"
#355000
b100 `
b100 R"
b100 I
#360000
b10010 $
0"
#370000
b1100001101 `"
b100 Y#
1"
#375000
b100 I
b100 R"
b100 `
#380000
b10011 $
0"
#390000
b100 Y#
b1100001100 `"
1"
#395000
b100 `
b100 R"
b100 I
#400000
b10100 $
0"
#410000
b1100001011 `"
b100 Y#
1"
#415000
b100 I
b100 R"
b100 `
#420000
b10101 $
0"
#430000
b100 Y#
b1100001010 `"
1"
#435000
b100 `
b100 R"
b100 I
#440000
b10110 $
0"
#450000
b1100001001 `"
b100 Y#
1"
#455000
b100 I
b100 R"
b100 `
#460000
b10111 $
0"
#470000
b100 Y#
b1100001000 `"
1"
#475000
b100 `
b100 R"
b100 I
#480000
b11000 $
0"
#490000
b1100000111 `"
b100 Y#
1"
#495000
b100 I
b100 R"
b100 `
#500000
b11001 $
0"
#510000
b100 Y#
b1100000110 `"
1"
#515000
b100 `
b100 R"
b100 I
#520000
b11010 $
0"
#530000
b1100000101 `"
b100 Y#
1"
#535000
b100 I
b100 R"
b100 `
#540000
b11011 $
0"
#550000
b100 Y#
b1100000100 `"
1"
#555000
b100 `
b100 R"
b100 I
#560000
b11100 $
0"
#570000
b1100000011 `"
b100 Y#
1"
#575000
b100 I
b100 R"
b100 `
#580000
b11101 $
0"
#590000
b100 Y#
b1100000010 `"
1"
#595000
b100 `
b100 R"
b100 I
#600000
b11110 $
0"
#610000
b1100000001 `"
b100 Y#
1"
#615000
b100 I
b100 R"
b100 `
#620000
b11111 $
0"
#630000
b100 Y#
b1100000000 `"
1"
#635000
b100 `
b100 R"
b100 I
#640000
b100000 $
0"
#650000
b1011111111 `"
b100 Y#
1"
#655000
b100 I
b100 R"
b100 `
#660000
b100001 $
0"
#670000
b100 Y#
b1011111110 `"
1"
#675000
b100 `
b100 R"
b100 I
#680000
b100010 $
0"
#690000
b1011111101 `"
b100 Y#
1"
#695000
b100 I
b100 R"
b100 `
#700000
b100011 $
0"
#710000
b100 Y#
b1011111100 `"
1"
#715000
b100 `
b100 R"
b100 I
#720000
b100100 $
0"
#730000
b1011111011 `"
b100 Y#
1"
#735000
b100 I
b100 R"
b100 `
#740000
b100101 $
0"
#750000
b100 Y#
b1011111010 `"
1"
#755000
b100 `
b100 R"
b100 I
#760000
b100110 $
0"
#770000
b1011111001 `"
b100 Y#
1"
#775000
b100 I
b100 R"
b100 `
#780000
b100111 $
0"
#790000
b100 Y#
b1011111000 `"
1"
#795000
b100 `
b100 R"
b100 I
#800000
b101000 $
0"
#810000
b1011110111 `"
b100 Y#
1"
#815000
b100 I
b100 R"
b100 `
#820000
b101001 $
0"
#830000
b100 Y#
b1011110110 `"
1"
#835000
b100 `
b100 R"
b100 I
#840000
b101010 $
0"
#850000
b1011110101 `"
b100 Y#
1"
#855000
b100 I
b100 R"
b100 `
#860000
b101011 $
0"
#870000
b100 Y#
b1011110100 `"
1"
#875000
b100 `
b100 R"
b100 I
#880000
b101100 $
0"
#890000
b1011110011 `"
b100 Y#
1"
#895000
b100 I
b100 R"
b100 `
#900000
b101101 $
0"
#910000
b100 Y#
b1011110010 `"
1"
#915000
b100 `
b100 R"
b100 I
#920000
b101110 $
0"
#930000
b1011110001 `"
b100 Y#
1"
#935000
b100 I
b100 R"
b100 `
#940000
b101111 $
0"
#950000
b100 Y#
b1011110000 `"
1"
#955000
b100 `
b100 R"
b100 I
#960000
b110000 $
0"
#970000
b1011101111 `"
b100 Y#
1"
#975000
b100 I
b100 R"
b100 `
#980000
b110001 $
0"
#990000
b100 Y#
b1011101110 `"
1"
#995000
b100 `
b100 R"
b100 I
#1000000
b110010 $
0"
#1010000
b1011101101 `"
b100 Y#
1"
#1015000
b100 I
b100 R"
b100 `
#1020000
b110011 $
0"
#1030000
b100 Y#
b1011101100 `"
1"
#1035000
b100 `
b100 R"
b100 I
#1040000
b110100 $
0"
#1050000
b1011101011 `"
b100 Y#
1"
#1055000
b100 I
b100 R"
b100 `
#1060000
b110101 $
0"
#1070000
b100 Y#
b1011101010 `"
1"
#1075000
b100 `
b100 R"
b100 I
#1080000
b110110 $
0"
#1090000
b1011101001 `"
b100 Y#
1"
#1095000
b100 I
b100 R"
b100 `
#1100000
b110111 $
0"
#1110000
b100 Y#
b1011101000 `"
1"
#1115000
b100 `
b100 R"
b100 I
#1120000
b111000 $
0"
#1130000
b1011100111 `"
b100 Y#
1"
#1135000
b100 I
b100 R"
b100 `
#1140000
b111001 $
0"
#1150000
b100 Y#
b1011100110 `"
1"
#1155000
b100 `
b100 R"
b100 I
#1160000
b111010 $
0"
#1170000
b1011100101 `"
b100 Y#
1"
#1175000
b100 I
b100 R"
b100 `
#1180000
b111011 $
0"
#1190000
b100 Y#
b1011100100 `"
1"
#1195000
b100 `
b100 R"
b100 I
#1200000
b111100 $
0"
#1210000
b1011100011 `"
b100 Y#
1"
#1215000
b100 I
b100 R"
b100 `
#1220000
b111101 $
0"
#1230000
b100 Y#
b1011100010 `"
1"
#1235000
b100 `
b100 R"
b100 I
#1240000
b111110 $
0"
#1250000
b1011100001 `"
b100 Y#
1"
#1255000
b100 I
b100 R"
b100 `
#1260000
b111111 $
0"
#1270000
b100 Y#
b1011100000 `"
1"
#1275000
b100 `
b100 R"
b100 I
#1280000
b1000000 $
0"
#1290000
b1011011111 `"
b100 Y#
1"
#1295000
b100 I
b100 R"
b100 `
#1300000
b1000001 $
0"
#1310000
b100 Y#
b1011011110 `"
1"
#1315000
b100 `
b100 R"
b100 I
#1320000
b1000010 $
0"
#1330000
b1011011101 `"
b100 Y#
1"
#1335000
b100 I
b100 R"
b100 `
#1340000
b1000011 $
0"
#1350000
b100 Y#
b1011011100 `"
1"
#1355000
b100 `
b100 R"
b100 I
#1360000
b1000100 $
0"
#1370000
b1011011011 `"
b100 Y#
1"
#1375000
b100 I
b100 R"
b100 `
#1380000
b1000101 $
0"
#1390000
b100 Y#
b1011011010 `"
1"
#1395000
b100 `
b100 R"
b100 I
#1400000
b1000110 $
0"
#1410000
b1011011001 `"
b100 Y#
1"
#1415000
b100 I
b100 R"
b100 `
#1420000
b1000111 $
0"
#1430000
b100 Y#
b1011011000 `"
1"
#1435000
b100 `
b100 R"
b100 I
#1440000
b1001000 $
0"
#1450000
b1011010111 `"
b100 Y#
1"
#1455000
b100 I
b100 R"
b100 `
#1460000
b1001001 $
0"
#1470000
b100 Y#
b1011010110 `"
1"
#1475000
b100 `
b100 R"
b100 I
#1480000
b1001010 $
0"
#1490000
b1011010101 `"
b100 Y#
1"
#1495000
b100 I
b100 R"
b100 `
#1500000
b1001011 $
0"
#1510000
b100 Y#
b1011010100 `"
1"
#1515000
b100 `
b100 R"
b100 I
#1520000
b1001100 $
0"
#1530000
b1011010011 `"
b100 Y#
1"
#1535000
b100 I
b100 R"
b100 `
#1540000
b1001101 $
0"
#1550000
b100 Y#
b1011010010 `"
1"
#1555000
b100 `
b100 R"
b100 I
#1560000
b1001110 $
0"
#1570000
b1011010001 `"
b100 Y#
1"
#1575000
b100 I
b100 R"
b100 `
#1580000
b1001111 $
0"
#1590000
b100 Y#
b1011010000 `"
1"
#1595000
b100 `
b100 R"
b100 I
#1600000
b1010000 $
0"
#1610000
b1011001111 `"
b100 Y#
1"
#1615000
b100 I
b100 R"
b100 `
#1620000
b1010001 $
0"
#1630000
b100 Y#
b1011001110 `"
1"
#1635000
b100 `
b100 R"
b100 I
#1640000
b1010010 $
0"
#1650000
b1011001101 `"
b100 Y#
1"
#1655000
b100 I
b100 R"
b100 `
#1660000
b1010011 $
0"
#1670000
b100 Y#
b1011001100 `"
1"
#1675000
b100 `
b100 R"
b100 I
#1680000
b1010100 $
0"
#1690000
b1011001011 `"
b100 Y#
1"
#1695000
b100 I
b100 R"
b100 `
#1700000
b1010101 $
0"
#1710000
b100 Y#
b1011001010 `"
1"
#1715000
b100 `
b100 R"
b100 I
#1720000
b1010110 $
0"
#1730000
b1011001001 `"
b100 Y#
1"
#1735000
b100 I
b100 R"
b100 `
#1740000
b1010111 $
0"
#1750000
b100 Y#
b1011001000 `"
1"
#1755000
b100 `
b100 R"
b100 I
#1760000
b1011000 $
0"
#1770000
b1011000111 `"
b100 Y#
1"
#1775000
b100 I
b100 R"
b100 `
#1780000
b1011001 $
0"
#1790000
b100 Y#
b1011000110 `"
1"
#1795000
b100 `
b100 R"
b100 I
#1800000
b1011010 $
0"
#1810000
b1011000101 `"
b100 Y#
1"
#1815000
b100 I
b100 R"
b100 `
#1820000
b1011011 $
0"
#1830000
b100 Y#
b1011000100 `"
1"
#1835000
b100 `
b100 R"
b100 I
#1840000
b1011100 $
0"
#1850000
b1011000011 `"
b100 Y#
1"
#1855000
b100 I
b100 R"
b100 `
#1860000
b1011101 $
0"
#1870000
b100 Y#
b1011000010 `"
1"
#1875000
b100 `
b100 R"
b100 I
#1880000
b1011110 $
0"
#1890000
b1011000001 `"
b100 Y#
1"
#1895000
b100 I
b100 R"
b100 `
#1900000
b1011111 $
0"
#1910000
b100 Y#
b1011000000 `"
1"
#1915000
b100 `
b100 R"
b100 I
#1920000
b1100000 $
0"
#1930000
b1010111111 `"
b100 Y#
1"
#1935000
b100 I
b100 R"
b100 `
#1940000
b1100001 $
0"
#1950000
b100 Y#
b1010111110 `"
1"
#1955000
b100 `
b100 R"
b100 I
#1960000
b1100010 $
0"
#1970000
b1010111101 `"
b100 Y#
1"
#1975000
b100 I
b100 R"
b100 `
#1980000
b1100011 $
0"
#1990000
b100 Y#
b1010111100 `"
1"
#1995000
b100 `
b100 R"
b100 I
#2000000
b1100100 $
0"
#2010000
b1010111011 `"
b100 Y#
1"
#2015000
b100 I
b100 R"
b100 `
#2020000
b1100101 $
0"
#2030000
b100 Y#
b1010111010 `"
1"
#2035000
b100 `
b100 R"
b100 I
#2040000
b1100110 $
0"
#2050000
b1010111001 `"
b100 Y#
1"
#2055000
b100 I
b100 R"
b100 `
#2060000
b1100111 $
0"
#2070000
b100 Y#
b1010111000 `"
1"
#2075000
b100 `
b100 R"
b100 I
#2080000
b1101000 $
0"
#2090000
b1010110111 `"
b100 Y#
1"
#2095000
b100 I
b100 R"
b100 `
#2100000
b1101001 $
0"
#2110000
b100 Y#
b1010110110 `"
1"
#2115000
b100 `
b100 R"
b100 I
#2120000
b1101010 $
0"
#2130000
b1010110101 `"
b100 Y#
1"
#2135000
b100 I
b100 R"
b100 `
#2140000
b1101011 $
0"
#2150000
b100 Y#
b1010110100 `"
1"
#2155000
b100 `
b100 R"
b100 I
#2160000
b1101100 $
0"
#2170000
b1010110011 `"
b100 Y#
1"
#2175000
b100 I
b100 R"
b100 `
#2180000
b1101101 $
0"
#2190000
b100 Y#
b1010110010 `"
1"
#2195000
b100 `
b100 R"
b100 I
#2200000
b1101110 $
0"
#2210000
b1010110001 `"
b100 Y#
1"
#2215000
b100 I
b100 R"
b100 `
#2220000
b1101111 $
0"
#2230000
b100 Y#
b1010110000 `"
1"
#2235000
b100 `
b100 R"
b100 I
#2240000
b1110000 $
0"
#2250000
b1010101111 `"
b100 Y#
1"
#2255000
b100 I
b100 R"
b100 `
#2260000
b1110001 $
0"
#2270000
b100 Y#
b1010101110 `"
1"
#2275000
b100 `
b100 R"
b100 I
#2280000
b1110010 $
0"
#2290000
b1010101101 `"
b100 Y#
1"
#2295000
b100 I
b100 R"
b100 `
#2300000
b1110011 $
0"
#2310000
b100 Y#
b1010101100 `"
1"
#2315000
b100 `
b100 R"
b100 I
#2320000
b1110100 $
0"
#2330000
b1010101011 `"
b100 Y#
1"
#2335000
b100 I
b100 R"
b100 `
#2340000
b1110101 $
0"
#2350000
b100 Y#
b1010101010 `"
1"
#2355000
b100 `
b100 R"
b100 I
#2360000
b1110110 $
0"
#2370000
b1010101001 `"
b100 Y#
1"
#2375000
b100 I
b100 R"
b100 `
#2380000
b1110111 $
0"
#2390000
b100 Y#
b1010101000 `"
1"
#2395000
b100 `
b100 R"
b100 I
#2400000
b1111000 $
0"
#2410000
b1010100111 `"
b100 Y#
1"
#2415000
b100 I
b100 R"
b100 `
#2420000
b1111001 $
0"
#2430000
b100 Y#
b1010100110 `"
1"
#2435000
b100 `
b100 R"
b100 I
#2440000
b1111010 $
0"
#2450000
b1010100101 `"
b100 Y#
1"
#2455000
b100 I
b100 R"
b100 `
#2460000
b1111011 $
0"
#2470000
b100 Y#
b1010100100 `"
1"
#2475000
b100 `
b100 R"
b100 I
#2480000
b1111100 $
0"
#2490000
b1010100011 `"
b100 Y#
1"
#2495000
b100 I
b100 R"
b100 `
#2500000
b1111101 $
0"
#2510000
b100 Y#
b1010100010 `"
1"
#2515000
b100 `
b100 R"
b100 I
